{
    "name": "PlayerInput Actions",
    "maps": [
        {
            "name": "Kart",
            "id": "95b512f8-dd37-43b1-b98a-ebbd76de65b1",
            "actions": [
                {
                    "name": "Move",
                    "type": "Value",
                    "id": "9cec3e9d-22de-46f1-ac94-e6223546e9c0",
                    "expectedControlType": "Vector2",
                    "processors": "",
                    "interactions": "",
                    "initialStateCheck": true
                },
                {
                    "name": "Break",
                    "type": "Button",
                    "id": "73f88525-00aa-41bc-b021-73dd1b259895",
                    "expectedControlType": "Button",
                    "processors": "",
                    "interactions": "Hold",
                    "initialStateCheck": false
                },
                {
                    "name": "ResetPosition",
                    "type": "Button",
                    "id": "0b8940d8-9930-467b-a146-82dfb0a0b891",
                    "expectedControlType": "Button",
                    "processors": "",
                    "interactions": "",
                    "initialStateCheck": false
                },
                {
                    "name": "LookAround",
                    "type": "Value",
                    "id": "d84e2d54-b9ad-4c42-8678-91c4a7dd3821",
                    "expectedControlType": "Vector2",
                    "processors": "",
                    "interactions": "",
                    "initialStateCheck": true
                },
                {
                    "name": "Acceleration",
                    "type": "Button",
                    "id": "0b5fe551-c83a-4696-9967-96fa95efa95e",
                    "expectedControlType": "Button",
                    "processors": "",
                    "interactions": "Hold",
                    "initialStateCheck": false
                }
            ],
            "bindings": [
                {
                    "name": "WASD",
                    "id": "0cfc83a0-f96e-4608-bad6-ca4aef3b6430",
                    "path": "2DVector",
                    "interactions": "",
                    "processors": "",
                    "groups": "",
                    "action": "Move",
                    "isComposite": true,
                    "isPartOfComposite": false
                },
                {
                    "name": "up",
                    "id": "dc4c7bea-795f-46c4-a89f-4ce75cf58d74",
                    "path": "<Keyboard>/w",
                    "interactions": "",
                    "processors": "",
                    "groups": "PC",
                    "action": "Move",
                    "isComposite": false,
                    "isPartOfComposite": true
                },
                {
                    "name": "down",
                    "id": "51c37382-01f3-4805-ae45-a344ea24a7ff",
                    "path": "<Keyboard>/s",
                    "interactions": "",
                    "processors": "",
                    "groups": "PC",
                    "action": "Move",
                    "isComposite": false,
                    "isPartOfComposite": true
                },
                {
                    "name": "left",
                    "id": "b396d1ea-6fe4-4daf-9cdd-e8b4952836dc",
                    "path": "<Keyboard>/a",
                    "interactions": "",
                    "processors": "",
                    "groups": "PC",
                    "action": "Move",
                    "isComposite": false,
                    "isPartOfComposite": true
                },
                {
                    "name": "right",
                    "id": "12b2730c-0b11-4041-acd9-91bfb66e70c2",
                    "path": "<Keyboard>/d",
                    "interactions": "",
                    "processors": "",
                    "groups": "PC",
                    "action": "Move",
                    "isComposite": false,
                    "isPartOfComposite": true
                },
                {
                    "name": "Arrows",
                    "id": "0a1e7b02-90e7-42d3-9142-792580dd129d",
                    "path": "2DVector",
                    "interactions": "",
                    "processors": "",
                    "groups": "",
                    "action": "Move",
                    "isComposite": true,
                    "isPartOfComposite": false
                },
                {
                    "name": "up",
                    "id": "62102f75-251f-42a9-9269-d48ca6e99a9d",
                    "path": "<Keyboard>/upArrow",
                    "interactions": "",
                    "processors": "",
                    "groups": "",
                    "action": "Move",
                    "isComposite": false,
                    "isPartOfComposite": true
                },
                {
                    "name": "down",
                    "id": "4bb5f57b-e0fb-46a7-9e32-1538ec2cdd89",
                    "path": "<Keyboard>/downArrow",
                    "interactions": "",
                    "processors": "",
                    "groups": "",
                    "action": "Move",
                    "isComposite": false,
                    "isPartOfComposite": true
                },
                {
                    "name": "left",
                    "id": "a2247222-ef82-4de3-aa24-63c153a6ba16",
                    "path": "<Keyboard>/leftArrow",
                    "interactions": "",
                    "processors": "",
                    "groups": "",
                    "action": "Move",
                    "isComposite": false,
                    "isPartOfComposite": true
                },
                {
                    "name": "right",
                    "id": "67f0222a-710e-4eba-8fb1-1e9756baa21e",
                    "path": "<Keyboard>/rightArrow",
                    "interactions": "",
                    "processors": "",
                    "groups": "",
                    "action": "Move",
                    "isComposite": false,
                    "isPartOfComposite": true
                },
                {
                    "name": "",
                    "id": "74d5a36c-2d46-4a1f-83de-511de0f6389c",
                    "path": "<Gamepad>/leftStick",
                    "interactions": "",
                    "processors": "",
                    "groups": "",
                    "action": "Move",
                    "isComposite": false,
                    "isPartOfComposite": false
                },
                {
                    "name": "",
                    "id": "ddbfa526-73ec-421b-867c-68e4f4d5e7a7",
                    "path": "<Keyboard>/space",
                    "interactions": "",
                    "processors": "",
                    "groups": "",
                    "action": "Break",
                    "isComposite": false,
                    "isPartOfComposite": false
                },
                {
                    "name": "",
                    "id": "99d2a69c-2092-4364-96fa-7dd2fe054178",
                    "path": "<Keyboard>/r",
                    "interactions": "",
                    "processors": "",
                    "groups": "",
                    "action": "ResetPosition",
                    "isComposite": false,
                    "isPartOfComposite": false
                },
                {
                    "name": "",
                    "id": "7b95268d-73e6-4f09-b17c-7f7f1030f49c",
                    "path": "<Gamepad>/rightStick",
                    "interactions": "",
                    "processors": "",
                    "groups": "",
                    "action": "LookAround",
                    "isComposite": false,
                    "isPartOfComposite": false
                },
                {
                    "name": "",
                    "id": "5533b002-78ce-4fb8-8b19-b48a53ed249a",
                    "path": "<Mouse>/rightButton",
                    "interactions": "",
                    "processors": "",
                    "groups": "",
                    "action": "Acceleration",
                    "isComposite": false,
                    "isPartOfComposite": false
                }
            ]
        }
    ],
    "controlSchemes": [
        {
            "name": "PC",
            "bindingGroup": "PC",
            "devices": [
                {
                    "devicePath": "<Keyboard>",
                    "isOptional": false,
                    "isOR": false
                },
                {
                    "devicePath": "<Mouse>",
                    "isOptional": false,
                    "isOR": false
                }
            ]
        }
    ]
}